% $ biblatex auxiliary file $
% $ biblatex bbl format version 3.0 $
% Do not modify the above lines!
%
% This is an auxiliary file used by the 'biblatex' package.
% This file may safely be deleted. It will be recreated by
% biber as required.
%
\begingroup
\makeatletter
\@ifundefined{ver@biblatex.sty}
  {\@latex@error
     {Missing 'biblatex' package}
     {The bibliography requires the 'biblatex' package.}
      \aftergroup\endinput}
  {}
\endgroup


\refsection{0}
  \datalist[entry]{none/global//global/global}
    \entry{octoverse}{online}{}
      \field{sortinit}{1}
      \field{sortinithash}{2174f786c6195e7fe2ee1c229b416e29}
      \field{labeltitlesource}{title}
      \field{title}{The State of Octoverse}
      \field{urlday}{20}
      \field{urlmonth}{5}
      \field{urlyear}{2020}
      \field{urldateera}{ce}
      \verb{urlraw}
      \verb https://octoverse.github.com/
      \endverb
      \verb{url}
      \verb https://octoverse.github.com/
      \endverb
    \endentry
    \entry{wiki:predmetnaya-oblast}{online}{}
      \field{sortinit}{2}
      \field{sortinithash}{cbff857e587bcb4635511624d773949e}
      \field{labeltitlesource}{title}
      \field{title}{Википедия. Предметная область}
      \field{urlday}{20}
      \field{urlmonth}{5}
      \field{urlyear}{2020}
      \field{urldateera}{ce}
      \verb{urlraw}
      \verb https://ru.wikipedia.org/wiki/Предметная_область
      \endverb
      \verb{url}
      \verb https://ru.wikipedia.org/wiki/%D0%9F%D1%80%D0%B5%D0%B4%D0%BC%D0%B5%D1%82%D0%BD%D0%B0%D1%8F_%D0%BE%D0%B1%D0%BB%D0%B0%D1%81%D1%82%D1%8C
      \endverb
    \endentry
    \entry{gitlab}{online}{}
      \field{sortinit}{3}
      \field{sortinithash}{a4b52e5432884761f50fb9571273b93e}
      \field{labeltitlesource}{title}
      \field{title}{GitLab}
      \field{urlday}{20}
      \field{urlmonth}{5}
      \field{urlyear}{2020}
      \field{urldateera}{ce}
      \verb{urlraw}
      \verb https://gitlab.com
      \endverb
      \verb{url}
      \verb https://gitlab.com
      \endverb
    \endentry
    \entry{github}{online}{}
      \field{sortinit}{4}
      \field{sortinithash}{11cdaee3b18e01d77f3f428b13c1fc76}
      \field{labeltitlesource}{title}
      \field{title}{GitHub}
      \field{urlday}{20}
      \field{urlmonth}{5}
      \field{urlyear}{2020}
      \field{urldateera}{ce}
      \verb{urlraw}
      \verb https://github.com
      \endverb
      \verb{url}
      \verb https://github.com
      \endverb
    \endentry
    \entry{bitbucket}{online}{}
      \field{sortinit}{5}
      \field{sortinithash}{3c19c3776b658b3558e9e2e4840c01e2}
      \field{labeltitlesource}{title}
      \field{title}{BitBucket}
      \field{urlday}{20}
      \field{urlmonth}{5}
      \field{urlyear}{2020}
      \field{urldateera}{ce}
      \verb{urlraw}
      \verb https://bitbucket.org
      \endverb
      \verb{url}
      \verb https://bitbucket.org
      \endverb
    \endentry
    \entry{gnu-savannah}{online}{}
      \field{sortinit}{6}
      \field{sortinithash}{57e57fb8451e7fcfa45d1e069f6d3136}
      \field{labeltitlesource}{title}
      \field{title}{GNU Savannah}
      \field{urlday}{20}
      \field{urlmonth}{5}
      \field{urlyear}{2020}
      \field{urldateera}{ce}
      \verb{urlraw}
      \verb https://savannah.gnu.org
      \endverb
      \verb{url}
      \verb https://savannah.gnu.org
      \endverb
    \endentry
    \entry{git}{online}{}
      \field{sortinit}{7}
      \field{sortinithash}{c818dd9105a2852444fc9f5e145c294e}
      \field{labeltitlesource}{title}
      \field{title}{Git}
      \field{urlday}{20}
      \field{urlmonth}{5}
      \field{urlyear}{2020}
      \field{urldateera}{ce}
      \verb{urlraw}
      \verb https://git-scm.com/
      \endverb
      \verb{url}
      \verb https://git-scm.com/
      \endverb
    \endentry
    \entry{mercurial}{online}{}
      \field{sortinit}{8}
      \field{sortinithash}{07edf88d4ea82509b9c4b4d13f41c452}
      \field{labeltitlesource}{title}
      \field{title}{Mercurial}
      \field{urlday}{20}
      \field{urlmonth}{5}
      \field{urlyear}{2020}
      \field{urldateera}{ce}
      \verb{urlraw}
      \verb https://www.mercurial-scm.org/
      \endverb
      \verb{url}
      \verb https://www.mercurial-scm.org/
      \endverb
    \endentry
    \entry{project}{online}{}
      \field{sortinit}{9}
      \field{sortinithash}{1dd72ab054147731c9d824b49aba0534}
      \field{labeltitlesource}{title}
      \field{title}{Википедия. Проектирование баз данных}
      \field{urlday}{1}
      \field{urlmonth}{6}
      \field{urlyear}{2020}
      \field{urldateera}{ce}
      \verb{urlraw}
      \verb https://ru.wikipedia.org/wiki/Проектирование_баз_данных
      \endverb
      \verb{url}
      \verb https://ru.wikipedia.org/wiki/%D0%9F%D1%80%D0%BE%D0%B5%D0%BA%D1%82%D0%B8%D1%80%D0%BE%D0%B2%D0%B0%D0%BD%D0%B8%D0%B5_%D0%B1%D0%B0%D0%B7_%D0%B4%D0%B0%D0%BD%D0%BD%D1%8B%D1%85
      \endverb
    \endentry
    \entry{dvi}{online}{}
      \field{sortinit}{1}
      \field{sortinithash}{2174f786c6195e7fe2ee1c229b416e29}
      \field{labeltitlesource}{title}
      \field{title}{Диаграмма вариантов использования}
      \field{urlday}{1}
      \field{urlmonth}{6}
      \field{urlyear}{2020}
      \field{urldateera}{ce}
      \verb{urlraw}
      \verb https://sites.google.com/site/anisimovkhv/learning/pris/lecture/tema12/tema12_2
      \endverb
      \verb{url}
      \verb https://sites.google.com/site/anisimovkhv/learning/pris/lecture/tema12/tema12_2
      \endverb
    \endentry
    \entry{logic-project}{online}{}
      \field{sortinit}{1}
      \field{sortinithash}{2174f786c6195e7fe2ee1c229b416e29}
      \field{labeltitlesource}{title}
      \field{title}{Логическое проектирование БД}
      \field{urlday}{1}
      \field{urlmonth}{6}
      \field{urlyear}{2020}
      \field{urldateera}{ce}
      \verb{urlraw}
      \verb http://karpov-k.me/computernaya-nauka/bd/353-logicheskoe-proektirovanie-bd
      \endverb
      \verb{url}
      \verb http://karpov-k.me/computernaya-nauka/bd/353-logicheskoe-proektirovanie-bd
      \endverb
    \endentry
    \entry{er-model}{online}{}
      \field{sortinit}{1}
      \field{sortinithash}{2174f786c6195e7fe2ee1c229b416e29}
      \field{labeltitlesource}{title}
      \field{title}{ER-модель}
      \field{urlday}{1}
      \field{urlmonth}{6}
      \field{urlyear}{2020}
      \field{urldateera}{ce}
      \verb{urlraw}
      \verb https://ru.wikipedia.org/wiki/ER-модель
      \endverb
      \verb{url}
      \verb https://ru.wikipedia.org/wiki/ER-%D0%BC%D0%BE%D0%B4%D0%B5%D0%BB%D1%8C
      \endverb
    \endentry
    \entry{postgres}{online}{}
      \field{sortinit}{1}
      \field{sortinithash}{2174f786c6195e7fe2ee1c229b416e29}
      \field{labeltitlesource}{title}
      \field{title}{PostgreSQL}
      \field{urlday}{1}
      \field{urlmonth}{6}
      \field{urlyear}{2020}
      \field{urldateera}{ce}
      \verb{urlraw}
      \verb https://www.postgresql.org/
      \endverb
      \verb{url}
      \verb https://www.postgresql.org/
      \endverb
    \endentry
    \entry{iso-sql-2011}{online}{}
      \field{sortinit}{1}
      \field{sortinithash}{2174f786c6195e7fe2ee1c229b416e29}
      \field{labeltitlesource}{title}
      \field{title}{ISO/IEC 9075-1:2011}
      \field{urlday}{1}
      \field{urlmonth}{6}
      \field{urlyear}{2020}
      \field{urldateera}{ce}
      \verb{urlraw}
      \verb https://www.iso.org/standard/53681.html
      \endverb
      \verb{url}
      \verb https://www.iso.org/standard/53681.html
      \endverb
    \endentry
  \enddatalist
\endrefsection
\endinput

